\relax 
\catcode `"\active 
\catcode `<\active 
\catcode `>\active 
\@nameuse{es@quoting}
\babel@aux{spanish}{}
\@writefile{toc}{\contentsline {part}{I\hspace  {1em}PROYECTO}{11}}
\@input{proyecto/anteproyecto.aux}
\@input{proyecto/metodologia.aux}
\@writefile{toc}{\contentsline {part}{II\hspace  {1em}ARQUITECTURA Y DISE\IeC {\~N}O}{37}}
\@input{arquitectura_diseno/organizacion.aux}
\@input{arquitectura_diseno/archimate_adm.aux}
\@input{arquitectura_diseno/negocio.aux}
\@input{arquitectura_diseno/software.aux}
\@input{arquitectura_diseno/tecnologia.aux}
\@input{arquitectura_diseno/motivacion.aux}
\@input{arquitectura_diseno/migracion.aux}
\@input{arquitectura_diseno/patrones.aux}
\@input{arquitectura_diseno/creacionales.aux}
\@input{arquitectura_diseno/estructurales.aux}
\@input{arquitectura_diseno/comportamiento.aux}
\@writefile{toc}{\contentsline {part}{III\hspace  {1em}CONSIDERACIONES FINALES}{131}}
\@input{consideraciones/conclusiones.aux}
\bibstyle{plain}
\bibdata{bibliografia/articulos,bibliografia/libros}
\bibcite{digim1991}{1}
\bibcite{url02}{2}
\bibcite{digim2004}{3}
\bibcite{url03}{4}
\bibcite{url06}{5}
\bibcite{url01}{6}
\bibcite{digim2013}{7}
\bibcite{url04}{8}
\bibcite{url05}{9}
\bibcite{digim2009}{10}
\@input{consideraciones/anexos.aux}
