\babel@toc {spanish}{}
\addvspace {10\p@ }
\addvspace {10\p@ }
\contentsline {figure}{\numberline {2.1}{\ignorespaces Scrum Process}}{34}
\addvspace {10\p@ }
\contentsline {figure}{\numberline {3.1}{\ignorespaces Organigrama}}{42}
\addvspace {10\p@ }
\contentsline {figure}{\numberline {4.1}{\ignorespaces ADM}}{57}
\addvspace {10\p@ }
\contentsline {figure}{\numberline {5.1}{\ignorespaces Organizaci\IeC {\'o}n}}{60}
\contentsline {figure}{\numberline {5.2}{\ignorespaces Organizaci\IeC {\'o}n}}{61}
\contentsline {figure}{\numberline {5.3}{\ignorespaces Organizaci\IeC {\'o}n}}{62}
\contentsline {figure}{\numberline {5.4}{\ignorespaces Organizaci\IeC {\'o}n}}{63}
\contentsline {figure}{\numberline {5.5}{\ignorespaces Organizaci\IeC {\'o}n}}{64}
\contentsline {figure}{\numberline {5.6}{\ignorespaces Organizaci\IeC {\'o}n}}{65}
\contentsline {figure}{\numberline {5.7}{\ignorespaces Organizaci\IeC {\'o}n}}{66}
\contentsline {figure}{\numberline {5.8}{\ignorespaces Organizaci\IeC {\'o}n}}{67}
\contentsline {figure}{\numberline {5.9}{\ignorespaces Organizaci\IeC {\'o}n}}{68}
\contentsline {figure}{\numberline {5.10}{\ignorespaces Organizaci\IeC {\'o}n}}{69}
\contentsline {figure}{\numberline {5.11}{\ignorespaces Organizaci\IeC {\'o}n}}{70}
\contentsline {figure}{\numberline {5.12}{\ignorespaces Organizaci\IeC {\'o}n}}{71}
\addvspace {10\p@ }
\contentsline {figure}{\numberline {6.1}{\ignorespaces Organizaci\IeC {\'o}n}}{74}
\contentsline {figure}{\numberline {6.2}{\ignorespaces Organizaci\IeC {\'o}n}}{75}
\contentsline {figure}{\numberline {6.3}{\ignorespaces Organizaci\IeC {\'o}n}}{76}
\contentsline {figure}{\numberline {6.4}{\ignorespaces Organizaci\IeC {\'o}n}}{77}
\contentsline {figure}{\numberline {6.5}{\ignorespaces Organizaci\IeC {\'o}n}}{78}
\contentsline {figure}{\numberline {6.6}{\ignorespaces Organizaci\IeC {\'o}n}}{79}
\contentsline {figure}{\numberline {6.7}{\ignorespaces Organizaci\IeC {\'o}n}}{82}
\contentsline {figure}{\numberline {6.8}{\ignorespaces Organizaci\IeC {\'o}n}}{83}
\addvspace {10\p@ }
\contentsline {figure}{\numberline {7.1}{\ignorespaces Organizaci\IeC {\'o}n}}{86}
\contentsline {figure}{\numberline {7.2}{\ignorespaces Organizaci\IeC {\'o}n}}{87}
\contentsline {figure}{\numberline {7.3}{\ignorespaces Organizaci\IeC {\'o}n}}{88}
\contentsline {figure}{\numberline {7.4}{\ignorespaces Organizaci\IeC {\'o}n}}{89}
\contentsline {figure}{\numberline {7.5}{\ignorespaces Organizaci\IeC {\'o}n}}{90}
\contentsline {figure}{\numberline {7.6}{\ignorespaces Organizaci\IeC {\'o}n}}{91}
\contentsline {figure}{\numberline {7.7}{\ignorespaces Organizaci\IeC {\'o}n}}{92}
\contentsline {figure}{\numberline {7.8}{\ignorespaces Organizaci\IeC {\'o}n}}{93}
\contentsline {figure}{\numberline {7.9}{\ignorespaces Organizaci\IeC {\'o}n}}{94}
\contentsline {figure}{\numberline {7.10}{\ignorespaces Organizaci\IeC {\'o}n}}{95}
\contentsline {figure}{\numberline {7.11}{\ignorespaces Organizaci\IeC {\'o}n}}{96}
\contentsline {figure}{\numberline {7.12}{\ignorespaces Organizaci\IeC {\'o}n}}{97}
\addvspace {10\p@ }
\contentsline {figure}{\numberline {8.1}{\ignorespaces Organizaci\IeC {\'o}n}}{100}
\contentsline {figure}{\numberline {8.2}{\ignorespaces Organizaci\IeC {\'o}n}}{101}
\contentsline {figure}{\numberline {8.3}{\ignorespaces Organizaci\IeC {\'o}n}}{102}
\contentsline {figure}{\numberline {8.4}{\ignorespaces Organizaci\IeC {\'o}n}}{103}
\contentsline {figure}{\numberline {8.5}{\ignorespaces Organizaci\IeC {\'o}n}}{104}
\contentsline {figure}{\numberline {8.6}{\ignorespaces Organizaci\IeC {\'o}n}}{105}
\contentsline {figure}{\numberline {8.7}{\ignorespaces Organizaci\IeC {\'o}n}}{106}
\contentsline {figure}{\numberline {8.8}{\ignorespaces Organizaci\IeC {\'o}n}}{107}
\contentsline {figure}{\numberline {8.9}{\ignorespaces Organizaci\IeC {\'o}n}}{108}
\contentsline {figure}{\numberline {8.10}{\ignorespaces Organizaci\IeC {\'o}n}}{109}
\contentsline {figure}{\numberline {8.11}{\ignorespaces Organizaci\IeC {\'o}n}}{110}
\contentsline {figure}{\numberline {8.12}{\ignorespaces Organizaci\IeC {\'o}n}}{111}
\addvspace {10\p@ }
\contentsline {figure}{\numberline {9.1}{\ignorespaces Organizaci\IeC {\'o}n}}{114}
\contentsline {figure}{\numberline {9.2}{\ignorespaces Organizaci\IeC {\'o}n}}{115}
\contentsline {figure}{\numberline {9.3}{\ignorespaces Organizaci\IeC {\'o}n}}{116}
\contentsline {figure}{\numberline {9.4}{\ignorespaces Organizaci\IeC {\'o}n}}{117}
\contentsline {figure}{\numberline {9.5}{\ignorespaces Organizaci\IeC {\'o}n}}{118}
\contentsline {figure}{\numberline {9.6}{\ignorespaces Organizaci\IeC {\'o}n}}{119}
\addvspace {10\p@ }
\addvspace {10\p@ }
\contentsline {figure}{\numberline {11.1}{\ignorespaces Singleton}}{124}
\contentsline {figure}{\numberline {11.2}{\ignorespaces Singleton}}{125}
\contentsline {figure}{\numberline {11.3}{\ignorespaces Singleton}}{125}
\contentsline {figure}{\numberline {11.4}{\ignorespaces Singleton}}{126}
\contentsline {figure}{\numberline {11.5}{\ignorespaces Singleton}}{126}
\contentsline {figure}{\numberline {11.6}{\ignorespaces Singleton}}{126}
\addvspace {10\p@ }
\addvspace {10\p@ }
