\relax 
\@writefile{toc}{\contentsline {chapter}{\numberline {1}Anteproyecto}{13}}
\@writefile{lof}{\addvspace {10\p@ }}
\@writefile{lot}{\addvspace {10\p@ }}
\@writefile{toc}{\contentsline {section}{\numberline {1.1}Introducci\IeC {\'o}n}{13}}
\@writefile{toc}{\contentsline {section}{\numberline {1.2}T\IeC {\'\i }tulo y definici\IeC {\'o}n del problema de investigaci\IeC {\'o}n}{15}}
\@writefile{toc}{\contentsline {section}{\numberline {1.3}Estudio del problema de investigaci\IeC {\'o}n}{15}}
\@writefile{toc}{\contentsline {subsection}{\numberline {1.3.1}Planteamiento del problema}{15}}
\@writefile{toc}{\contentsline {subsection}{\numberline {1.3.2}Formulaci\IeC {\'o}n del problema}{16}}
\@writefile{toc}{\contentsline {subsection}{\numberline {1.3.3}Sistematizaci\IeC {\'o}n del problema}{16}}
\@writefile{toc}{\contentsline {section}{\numberline {1.4}Objetivos de la investigaci\IeC {\'o}n}{17}}
\@writefile{toc}{\contentsline {subsection}{\numberline {1.4.1}Objetivo general}{17}}
\@writefile{toc}{\contentsline {subsection}{\numberline {1.4.2}Objetivos Espec\IeC {\'\i }ficos}{17}}
\@writefile{toc}{\contentsline {section}{\numberline {1.5}Justificaci\IeC {\'o}n de la investigaci\IeC {\'o}n}{18}}
\@writefile{toc}{\contentsline {subsection}{\numberline {1.5.1}Justificaci\IeC {\'o}n Pr\IeC {\'a}ctica}{18}}
\@writefile{toc}{\contentsline {section}{\numberline {1.6}Hip\IeC {\'o}tesis del trabajo}{18}}
\citation{url01}
\citation{digim2004}
\citation{digim1991}
\citation{digim2013}
\@writefile{toc}{\contentsline {section}{\numberline {1.7}Marco referencial}{19}}
\@writefile{toc}{\contentsline {subsection}{\numberline {1.7.1}Marco te\IeC {\'o}rico}{19}}
\@writefile{toc}{\contentsline {subsubsection}{Procesamiento Digital de Im\IeC {\'a}genes}{19}}
\@writefile{toc}{\contentsline {subsubsection}{Detecci\IeC {\'o}n de rostros}{19}}
\@writefile{toc}{\contentsline {subsubsection}{Reconocimiento facial (Patrones Binarios Locales)}{20}}
\@writefile{toc}{\contentsline {subsubsection}{Biometr\IeC {\'\i }a}{20}}
\citation{url03}
\citation{url05}
\@writefile{toc}{\contentsline {subsubsection}{Blockchain}{21}}
\@writefile{toc}{\contentsline {subsubsection}{Principios del blockchain}{22}}
\citation{url06}
\citation{url02}
\@writefile{toc}{\contentsline {subsubsection}{Sistemas centralizados vs Sistemas descentralizados}{23}}
\@writefile{toc}{\contentsline {subsection}{\numberline {1.7.2}Marco conceptual}{23}}
\@writefile{toc}{\contentsline {subsubsection}{Reconocimiento Facial con OpenCV}{23}}
\citation{url04}
\citation{digim2009}
\@writefile{toc}{\contentsline {subsubsection}{Sistemas embebidos}{24}}
\@writefile{toc}{\contentsline {section}{\numberline {1.8}Aspectos metodol\IeC {\'o}gicos}{25}}
\@writefile{toc}{\contentsline {subsection}{\numberline {1.8.1}Tipo de estudio}{25}}
\@writefile{toc}{\contentsline {subsection}{\numberline {1.8.2}M\IeC {\'e}todo de investigaci\IeC {\'o}n}{25}}
\@writefile{toc}{\contentsline {subsection}{\numberline {1.8.3}Fuentes y t\IeC {\'e}cnicas para la recolecci\IeC {\'o}n de datos}{25}}
\@writefile{toc}{\contentsline {subsubsection}{Fuentes primarias}{25}}
\@writefile{toc}{\contentsline {subsubsection}{Fuentes te\IeC {\'o}ricas}{26}}
\@writefile{toc}{\contentsline {section}{\numberline {1.9}Tratamiento de la informaci\IeC {\'o}n}{27}}
\@writefile{toc}{\contentsline {section}{\numberline {1.10}Alcances, limitaciones y resultados esperados}{28}}
\@writefile{toc}{\contentsline {subsection}{\numberline {1.10.1}Alcances}{28}}
\@writefile{toc}{\contentsline {subsection}{\numberline {1.10.2}Limitaciones}{28}}
\@writefile{toc}{\contentsline {subsection}{\numberline {1.10.3}Resultados Esperados}{28}}
\bibstyle{plain}
\bibdata{bibliografia/articulos,bibliografia/libros}
\@writefile{toc}{\contentsline {section}{\numberline {1.11}Tabla de contenidos del proyecto}{29}}
\@writefile{toc}{\contentsline {subsection}{\numberline {1.11.1}CAP\IeC {\'I}TULO 1. CONTEXTUALIZACION DE LA INVESTIGACI\IeC {\'O}N}{29}}
\@writefile{toc}{\contentsline {subsection}{\numberline {1.11.2}CAP\IeC {\'I}TULO 2. DESARROLLO DE LA INVESTIGACI\IeC {\'O}N}{29}}
\@writefile{toc}{\contentsline {subsection}{\numberline {1.11.3}CAP\IeC {\'I}TULO 3. CIERRE DE LA INVESTIGACI\IeC {\'O}N}{29}}
\bibcite{digim1991}{1}
\bibcite{url02}{2}
\bibcite{digim2004}{3}
\bibcite{url03}{4}
\bibcite{url06}{5}
\bibcite{url01}{6}
\bibcite{digim2013}{7}
\bibcite{url04}{8}
\bibcite{url05}{9}
\bibcite{digim2009}{10}
\@setckpt{proyecto/anteproyecto}{
\setcounter{page}{33}
\setcounter{equation}{0}
\setcounter{enumi}{0}
\setcounter{enumii}{0}
\setcounter{enumiii}{0}
\setcounter{enumiv}{10}
\setcounter{footnote}{0}
\setcounter{mpfootnote}{0}
\setcounter{part}{1}
\setcounter{chapter}{1}
\setcounter{section}{11}
\setcounter{subsection}{3}
\setcounter{subsubsection}{0}
\setcounter{paragraph}{0}
\setcounter{subparagraph}{0}
\setcounter{figure}{0}
\setcounter{table}{0}
\setcounter{lstnumber}{1}
\setcounter{lstlisting}{0}
}
