\relax 
\@writefile{toc}{\contentsline {chapter}{\numberline {2}Metodolog\IeC {\'\i }a}{33}}
\@writefile{lof}{\addvspace {10\p@ }}
\@writefile{lot}{\addvspace {10\p@ }}
\@writefile{toc}{\contentsline {section}{\numberline {2.1}Introducci\IeC {\'o}n}{33}}
\@writefile{toc}{\contentsline {section}{\numberline {2.2}Scrum}{34}}
\@writefile{lof}{\contentsline {figure}{\numberline {2.1}{\ignorespaces Scrum Process}}{34}}
\@writefile{toc}{\contentsline {subsection}{\numberline {2.2.1}Primer sprint: Blockchain }{35}}
\@writefile{toc}{\contentsline {subsection}{\numberline {2.2.2}Primera semana OFF}{35}}
\@writefile{toc}{\contentsline {subsection}{\numberline {2.2.3}Segundo sprint": Implementaci\IeC {\'o}n acceso por reconocimiento facial}{35}}
\@writefile{toc}{\contentsline {subsection}{\numberline {2.2.4}Segunda semana OFF}{35}}
\@writefile{toc}{\contentsline {subsection}{\numberline {2.2.5}Tercer sprint: Integraci\IeC {\'o}n blockchain - prototipo reconocimiento facial. }{35}}
\@writefile{toc}{\contentsline {subsection}{\numberline {2.2.6}Tercera semana OFF}{36}}
\@setckpt{proyecto/metodologia}{
\setcounter{page}{37}
\setcounter{equation}{0}
\setcounter{enumi}{0}
\setcounter{enumii}{0}
\setcounter{enumiii}{0}
\setcounter{enumiv}{10}
\setcounter{footnote}{0}
\setcounter{mpfootnote}{0}
\setcounter{part}{1}
\setcounter{chapter}{2}
\setcounter{section}{2}
\setcounter{subsection}{6}
\setcounter{subsubsection}{0}
\setcounter{paragraph}{0}
\setcounter{subparagraph}{0}
\setcounter{figure}{1}
\setcounter{table}{0}
\setcounter{lstnumber}{1}
\setcounter{lstlisting}{0}
}
