\relax 
\@writefile{toc}{\contentsline {chapter}{\numberline {4}Archimate y ADM}{47}}
\@writefile{lof}{\addvspace {10\p@ }}
\@writefile{lot}{\addvspace {10\p@ }}
\@writefile{toc}{\contentsline {section}{\numberline {4.1}Introducci\IeC {\'o}n}{47}}
\@writefile{toc}{\contentsline {section}{\numberline {4.2}Conceptos generales de Archimate}{48}}
\@writefile{toc}{\contentsline {section}{\numberline {4.3}Tabla de Negocio}{49}}
\@writefile{toc}{\contentsline {section}{\numberline {4.4}Tabla de Aplicaci\IeC {\'o}n}{51}}
\@writefile{toc}{\contentsline {section}{\numberline {4.5}Tabla de Tecnolog\IeC {\'\i }a}{52}}
\@writefile{toc}{\contentsline {section}{\numberline {4.6}Tabla de Relaciones}{54}}
\@writefile{toc}{\contentsline {section}{\numberline {4.7}Tabla de Motivaci\IeC {\'o}n Migraci\IeC {\'o}n}{56}}
\@writefile{toc}{\contentsline {section}{\numberline {4.8}ADM}{57}}
\@writefile{lof}{\contentsline {figure}{\numberline {4.1}{\ignorespaces ADM}}{57}}
\@setckpt{arquitectura_diseno/archimate_adm}{
\setcounter{page}{58}
\setcounter{equation}{0}
\setcounter{enumi}{0}
\setcounter{enumii}{0}
\setcounter{enumiii}{0}
\setcounter{enumiv}{10}
\setcounter{footnote}{0}
\setcounter{mpfootnote}{0}
\setcounter{part}{2}
\setcounter{chapter}{4}
\setcounter{section}{8}
\setcounter{subsection}{0}
\setcounter{subsubsection}{0}
\setcounter{paragraph}{0}
\setcounter{subparagraph}{0}
\setcounter{figure}{1}
\setcounter{table}{0}
\setcounter{lstnumber}{1}
\setcounter{lstlisting}{0}
}
