\relax 
\@writefile{toc}{\contentsline {chapter}{\numberline {13}Comportamiento}{129}}
\@writefile{lof}{\addvspace {10\p@ }}
\@writefile{lot}{\addvspace {10\p@ }}
\@writefile{toc}{\contentsline {section}{\numberline {13.1}Introducci\IeC {\'o}n}{129}}
\@setckpt{arquitectura_diseno/comportamiento}{
\setcounter{page}{130}
\setcounter{equation}{0}
\setcounter{enumi}{0}
\setcounter{enumii}{0}
\setcounter{enumiii}{0}
\setcounter{enumiv}{10}
\setcounter{footnote}{0}
\setcounter{mpfootnote}{0}
\setcounter{part}{2}
\setcounter{chapter}{13}
\setcounter{section}{1}
\setcounter{subsection}{0}
\setcounter{subsubsection}{0}
\setcounter{paragraph}{0}
\setcounter{subparagraph}{0}
\setcounter{figure}{0}
\setcounter{table}{0}
\setcounter{lstnumber}{44}
\setcounter{lstlisting}{0}
}
