\relax 
\citation{Bol2013}
\citation{4459176}
\@writefile{toc}{\contentsline {chapter}{\numberline {11}Creacionales}{123}}
\@writefile{lof}{\addvspace {10\p@ }}
\@writefile{lot}{\addvspace {10\p@ }}
\@writefile{toc}{\contentsline {section}{\numberline {11.1}Introducci\IeC {\'o}n}{123}}
\@writefile{toc}{\contentsline {section}{\numberline {11.2}Singleton}{124}}
\@writefile{toc}{\contentsline {subsection}{\numberline {11.2.1}Modelo Caso de Uso}{124}}
\@writefile{lof}{\contentsline {figure}{\numberline {11.1}{\ignorespaces Singleton}}{124}}
\@writefile{toc}{\contentsline {subsection}{\numberline {11.2.2}Moldeo Secuencia}{124}}
\@writefile{toc}{\contentsline {subsection}{\numberline {11.2.3}Modelo de Clases}{124}}
\@writefile{toc}{\contentsline {subsection}{\numberline {11.2.4}Caso Caso de Uso}{124}}
\@writefile{toc}{\contentsline {subsection}{\numberline {11.2.5}Caso Secuencia}{124}}
\@writefile{toc}{\contentsline {subsection}{\numberline {11.2.6}Caso de Clases}{124}}
\@writefile{lof}{\contentsline {figure}{\numberline {11.2}{\ignorespaces Singleton}}{125}}
\@writefile{lof}{\contentsline {figure}{\numberline {11.3}{\ignorespaces Singleton}}{125}}
\@writefile{lof}{\contentsline {figure}{\numberline {11.4}{\ignorespaces Singleton}}{126}}
\@writefile{lof}{\contentsline {figure}{\numberline {11.5}{\ignorespaces Singleton}}{126}}
\@writefile{lof}{\contentsline {figure}{\numberline {11.6}{\ignorespaces Singleton}}{126}}
\@setckpt{arquitectura_diseno/creacionales}{
\setcounter{page}{127}
\setcounter{equation}{0}
\setcounter{enumi}{0}
\setcounter{enumii}{0}
\setcounter{enumiii}{0}
\setcounter{enumiv}{10}
\setcounter{footnote}{0}
\setcounter{mpfootnote}{0}
\setcounter{part}{2}
\setcounter{chapter}{11}
\setcounter{section}{2}
\setcounter{subsection}{6}
\setcounter{subsubsection}{0}
\setcounter{paragraph}{0}
\setcounter{subparagraph}{0}
\setcounter{figure}{6}
\setcounter{table}{0}
\setcounter{lstnumber}{44}
\setcounter{lstlisting}{0}
}
