\relax 
\@writefile{toc}{\contentsline {chapter}{\numberline {8}Motivaci\IeC {\'o}n}{99}}
\@writefile{lof}{\addvspace {10\p@ }}
\@writefile{lot}{\addvspace {10\p@ }}
\@writefile{toc}{\contentsline {section}{\numberline {8.1}Introducci\IeC {\'o}n}{99}}
\@writefile{toc}{\contentsline {section}{\numberline {8.2}Punto de Vista de Stakeholders}{100}}
\@writefile{toc}{\contentsline {subsection}{\numberline {8.2.1}Modelo}{100}}
\@writefile{lof}{\contentsline {figure}{\numberline {8.1}{\ignorespaces Organizaci\IeC {\'o}n}}{100}}
\@writefile{toc}{\contentsline {subsection}{\numberline {8.2.2}Caso}{101}}
\@writefile{lof}{\contentsline {figure}{\numberline {8.2}{\ignorespaces Organizaci\IeC {\'o}n}}{101}}
\@writefile{toc}{\contentsline {section}{\numberline {8.3}Punto de Vista de Realizaci\IeC {\'o}n de Objetivos}{102}}
\@writefile{toc}{\contentsline {subsection}{\numberline {8.3.1}Modelo}{102}}
\@writefile{lof}{\contentsline {figure}{\numberline {8.3}{\ignorespaces Organizaci\IeC {\'o}n}}{102}}
\@writefile{toc}{\contentsline {subsection}{\numberline {8.3.2}Caso}{103}}
\@writefile{lof}{\contentsline {figure}{\numberline {8.4}{\ignorespaces Organizaci\IeC {\'o}n}}{103}}
\@writefile{toc}{\contentsline {section}{\numberline {8.4}Punto de Vista de contribuci\IeC {\'o}n de Objetivos}{104}}
\@writefile{toc}{\contentsline {subsection}{\numberline {8.4.1}Modelo}{104}}
\@writefile{lof}{\contentsline {figure}{\numberline {8.5}{\ignorespaces Organizaci\IeC {\'o}n}}{104}}
\@writefile{toc}{\contentsline {subsection}{\numberline {8.4.2}Caso}{105}}
\@writefile{lof}{\contentsline {figure}{\numberline {8.6}{\ignorespaces Organizaci\IeC {\'o}n}}{105}}
\@writefile{toc}{\contentsline {section}{\numberline {8.5}Punto de Vista de Realizaci\IeC {\'o}n de Requerimientos}{106}}
\@writefile{toc}{\contentsline {subsection}{\numberline {8.5.1}Modelo}{106}}
\@writefile{lof}{\contentsline {figure}{\numberline {8.7}{\ignorespaces Organizaci\IeC {\'o}n}}{106}}
\@writefile{toc}{\contentsline {subsection}{\numberline {8.5.2}Caso}{107}}
\@writefile{lof}{\contentsline {figure}{\numberline {8.8}{\ignorespaces Organizaci\IeC {\'o}n}}{107}}
\@writefile{toc}{\contentsline {section}{\numberline {8.6}Punto de Vista de Principios}{108}}
\@writefile{toc}{\contentsline {subsection}{\numberline {8.6.1}Modelo}{108}}
\@writefile{lof}{\contentsline {figure}{\numberline {8.9}{\ignorespaces Organizaci\IeC {\'o}n}}{108}}
\@writefile{toc}{\contentsline {subsection}{\numberline {8.6.2}Caso}{109}}
\@writefile{lof}{\contentsline {figure}{\numberline {8.10}{\ignorespaces Organizaci\IeC {\'o}n}}{109}}
\@writefile{toc}{\contentsline {section}{\numberline {8.7}Punto de Vista de Motivaci\IeC {\'o}n}{110}}
\@writefile{toc}{\contentsline {subsection}{\numberline {8.7.1}Modelo}{110}}
\@writefile{lof}{\contentsline {figure}{\numberline {8.11}{\ignorespaces Organizaci\IeC {\'o}n}}{110}}
\@writefile{toc}{\contentsline {subsection}{\numberline {8.7.2}Caso}{111}}
\@writefile{lof}{\contentsline {figure}{\numberline {8.12}{\ignorespaces Organizaci\IeC {\'o}n}}{111}}
\@setckpt{arquitectura_diseno/motivacion}{
\setcounter{page}{112}
\setcounter{equation}{0}
\setcounter{enumi}{0}
\setcounter{enumii}{0}
\setcounter{enumiii}{0}
\setcounter{enumiv}{10}
\setcounter{footnote}{0}
\setcounter{mpfootnote}{0}
\setcounter{part}{2}
\setcounter{chapter}{8}
\setcounter{section}{7}
\setcounter{subsection}{2}
\setcounter{subsubsection}{0}
\setcounter{paragraph}{0}
\setcounter{subparagraph}{0}
\setcounter{figure}{12}
\setcounter{table}{0}
\setcounter{lstnumber}{44}
\setcounter{lstlisting}{0}
}
