\relax 
\@writefile{toc}{\contentsline {chapter}{\numberline {5}Negocio}{59}}
\@writefile{lof}{\addvspace {10\p@ }}
\@writefile{lot}{\addvspace {10\p@ }}
\@writefile{toc}{\contentsline {section}{\numberline {5.1}Introducci\IeC {\'o}n}{59}}
\@writefile{toc}{\contentsline {section}{\numberline {5.2}Punto de Vista de Organizaci\IeC {\'o}n}{60}}
\@writefile{toc}{\contentsline {subsection}{\numberline {5.2.1}Modelo}{60}}
\@writefile{lof}{\contentsline {figure}{\numberline {5.1}{\ignorespaces Organizaci\IeC {\'o}n}}{60}}
\@writefile{toc}{\contentsline {subsection}{\numberline {5.2.2}Caso}{61}}
\@writefile{lof}{\contentsline {figure}{\numberline {5.2}{\ignorespaces Organizaci\IeC {\'o}n}}{61}}
\@writefile{toc}{\contentsline {section}{\numberline {5.3}Punto de Vista de Cooperaci\IeC {\'o}n de Actor}{62}}
\@writefile{toc}{\contentsline {subsection}{\numberline {5.3.1}Modelo}{62}}
\@writefile{lof}{\contentsline {figure}{\numberline {5.3}{\ignorespaces Organizaci\IeC {\'o}n}}{62}}
\@writefile{toc}{\contentsline {subsection}{\numberline {5.3.2}Caso}{63}}
\@writefile{lof}{\contentsline {figure}{\numberline {5.4}{\ignorespaces Organizaci\IeC {\'o}n}}{63}}
\@writefile{toc}{\contentsline {section}{\numberline {5.4}Punto de Vista de Funci\IeC {\'o}n de Negocio}{64}}
\@writefile{toc}{\contentsline {subsection}{\numberline {5.4.1}Modelo}{64}}
\@writefile{lof}{\contentsline {figure}{\numberline {5.5}{\ignorespaces Organizaci\IeC {\'o}n}}{64}}
\@writefile{toc}{\contentsline {subsection}{\numberline {5.4.2}Caso}{65}}
\@writefile{lof}{\contentsline {figure}{\numberline {5.6}{\ignorespaces Organizaci\IeC {\'o}n}}{65}}
\@writefile{toc}{\contentsline {section}{\numberline {5.5}Punto de Vista de Proceso de Negocio}{66}}
\@writefile{toc}{\contentsline {subsection}{\numberline {5.5.1}Modelo}{66}}
\@writefile{lof}{\contentsline {figure}{\numberline {5.7}{\ignorespaces Organizaci\IeC {\'o}n}}{66}}
\@writefile{toc}{\contentsline {subsection}{\numberline {5.5.2}Caso}{67}}
\@writefile{lof}{\contentsline {figure}{\numberline {5.8}{\ignorespaces Organizaci\IeC {\'o}n}}{67}}
\@writefile{toc}{\contentsline {section}{\numberline {5.6}Punto de Vista de Cooperaci\IeC {\'o}n de Proceso de Negocio}{68}}
\@writefile{toc}{\contentsline {subsection}{\numberline {5.6.1}Modelo}{68}}
\@writefile{lof}{\contentsline {figure}{\numberline {5.9}{\ignorespaces Organizaci\IeC {\'o}n}}{68}}
\@writefile{toc}{\contentsline {subsection}{\numberline {5.6.2}Caso}{69}}
\@writefile{lof}{\contentsline {figure}{\numberline {5.10}{\ignorespaces Organizaci\IeC {\'o}n}}{69}}
\@writefile{toc}{\contentsline {section}{\numberline {5.7}Punto de Vista de Producto}{70}}
\@writefile{toc}{\contentsline {subsection}{\numberline {5.7.1}Modelo}{70}}
\@writefile{lof}{\contentsline {figure}{\numberline {5.11}{\ignorespaces Organizaci\IeC {\'o}n}}{70}}
\@writefile{toc}{\contentsline {subsection}{\numberline {5.7.2}Caso}{71}}
\@writefile{lof}{\contentsline {figure}{\numberline {5.12}{\ignorespaces Organizaci\IeC {\'o}n}}{71}}
\@setckpt{arquitectura_diseno/negocio}{
\setcounter{page}{72}
\setcounter{equation}{0}
\setcounter{enumi}{0}
\setcounter{enumii}{0}
\setcounter{enumiii}{0}
\setcounter{enumiv}{10}
\setcounter{footnote}{0}
\setcounter{mpfootnote}{0}
\setcounter{part}{2}
\setcounter{chapter}{5}
\setcounter{section}{7}
\setcounter{subsection}{2}
\setcounter{subsubsection}{0}
\setcounter{paragraph}{0}
\setcounter{subparagraph}{0}
\setcounter{figure}{12}
\setcounter{table}{0}
\setcounter{lstnumber}{1}
\setcounter{lstlisting}{0}
}
