\relax 
\@writefile{toc}{\contentsline {chapter}{\numberline {3}Organizaci\IeC {\'o}n}{39}}
\@writefile{lof}{\addvspace {10\p@ }}
\@writefile{lot}{\addvspace {10\p@ }}
\@writefile{toc}{\contentsline {section}{\numberline {3.1}Introducci\IeC {\'o}n}{39}}
\@writefile{toc}{\contentsline {section}{\numberline {3.2}Nombre de la Organizaci\IeC {\'o}n: Teranov}{40}}
\@writefile{toc}{\contentsline {section}{\numberline {3.3}Misi\IeC {\'o}n}{40}}
\@writefile{toc}{\contentsline {section}{\numberline {3.4}Visi\IeC {\'o}n}{40}}
\@writefile{toc}{\contentsline {section}{\numberline {3.5}Objetivos Organizacionales}{40}}
\@writefile{toc}{\contentsline {section}{\numberline {3.6}Organigrama}{42}}
\@writefile{lof}{\contentsline {figure}{\numberline {3.1}{\ignorespaces Organigrama}}{42}}
\@writefile{toc}{\contentsline {section}{\numberline {3.7}Manual de Funciones}{43}}
\@writefile{toc}{\contentsline {section}{\numberline {3.8}Servicios y Productos}{46}}
\@setckpt{arquitectura_diseno/organizacion}{
\setcounter{page}{47}
\setcounter{equation}{0}
\setcounter{enumi}{0}
\setcounter{enumii}{0}
\setcounter{enumiii}{0}
\setcounter{enumiv}{10}
\setcounter{footnote}{0}
\setcounter{mpfootnote}{0}
\setcounter{part}{2}
\setcounter{chapter}{3}
\setcounter{section}{8}
\setcounter{subsection}{0}
\setcounter{subsubsection}{0}
\setcounter{paragraph}{0}
\setcounter{subparagraph}{0}
\setcounter{figure}{1}
\setcounter{table}{0}
\setcounter{lstnumber}{1}
\setcounter{lstlisting}{0}
}
