\relax 
\@writefile{toc}{\contentsline {chapter}{\numberline {6}Software}{73}}
\@writefile{lof}{\addvspace {10\p@ }}
\@writefile{lot}{\addvspace {10\p@ }}
\@writefile{toc}{\contentsline {section}{\numberline {6.1}Introducci\IeC {\'o}n}{73}}
\@writefile{toc}{\contentsline {section}{\numberline {6.2}Punto de Vista de Comportamiento de Aplicaci\IeC {\'o}n}{74}}
\@writefile{toc}{\contentsline {subsection}{\numberline {6.2.1}Modelo}{74}}
\@writefile{lof}{\contentsline {figure}{\numberline {6.1}{\ignorespaces Organizaci\IeC {\'o}n}}{74}}
\@writefile{toc}{\contentsline {subsection}{\numberline {6.2.2}Caso}{75}}
\@writefile{lof}{\contentsline {figure}{\numberline {6.2}{\ignorespaces Organizaci\IeC {\'o}n}}{75}}
\@writefile{toc}{\contentsline {section}{\numberline {6.3}Punto de Vista de Cooperaci\IeC {\'o}n de Aplicaci\IeC {\'o}n}{76}}
\@writefile{toc}{\contentsline {subsection}{\numberline {6.3.1}Modelo}{76}}
\@writefile{lof}{\contentsline {figure}{\numberline {6.3}{\ignorespaces Organizaci\IeC {\'o}n}}{76}}
\@writefile{toc}{\contentsline {subsection}{\numberline {6.3.2}Caso}{77}}
\@writefile{lof}{\contentsline {figure}{\numberline {6.4}{\ignorespaces Organizaci\IeC {\'o}n}}{77}}
\@writefile{toc}{\contentsline {section}{\numberline {6.4}Punto de Vista de Estructura de Aplicaci\IeC {\'o}n}{78}}
\@writefile{toc}{\contentsline {subsection}{\numberline {6.4.1}Modelo}{78}}
\@writefile{lof}{\contentsline {figure}{\numberline {6.5}{\ignorespaces Organizaci\IeC {\'o}n}}{78}}
\@writefile{toc}{\contentsline {subsection}{\numberline {6.4.2}Caso}{79}}
\@writefile{lof}{\contentsline {figure}{\numberline {6.6}{\ignorespaces Organizaci\IeC {\'o}n}}{79}}
\@writefile{toc}{\contentsline {subsection}{\numberline {6.4.3}Codigo Fuente}{80}}
\@writefile{lol}{\contentsline {lstlisting}{H:/Utility.java}{80}}
\@writefile{toc}{\contentsline {section}{\numberline {6.5}Punto de Vista de Uso de Aplicaci\IeC {\'o}n}{82}}
\@writefile{toc}{\contentsline {subsection}{\numberline {6.5.1}Modelo}{82}}
\@writefile{lof}{\contentsline {figure}{\numberline {6.7}{\ignorespaces Organizaci\IeC {\'o}n}}{82}}
\@writefile{toc}{\contentsline {subsection}{\numberline {6.5.2}Caso}{83}}
\@writefile{lof}{\contentsline {figure}{\numberline {6.8}{\ignorespaces Organizaci\IeC {\'o}n}}{83}}
\@setckpt{arquitectura_diseno/software}{
\setcounter{page}{84}
\setcounter{equation}{0}
\setcounter{enumi}{0}
\setcounter{enumii}{0}
\setcounter{enumiii}{0}
\setcounter{enumiv}{10}
\setcounter{footnote}{0}
\setcounter{mpfootnote}{0}
\setcounter{part}{2}
\setcounter{chapter}{6}
\setcounter{section}{5}
\setcounter{subsection}{2}
\setcounter{subsubsection}{0}
\setcounter{paragraph}{0}
\setcounter{subparagraph}{0}
\setcounter{figure}{8}
\setcounter{table}{0}
\setcounter{lstnumber}{44}
\setcounter{lstlisting}{0}
}
