\relax 
\@writefile{toc}{\contentsline {chapter}{\numberline {7}Tecnolog\IeC {\'\i }a}{85}}
\@writefile{lof}{\addvspace {10\p@ }}
\@writefile{lot}{\addvspace {10\p@ }}
\@writefile{toc}{\contentsline {section}{\numberline {7.1}Introducci\IeC {\'o}n}{85}}
\@writefile{toc}{\contentsline {section}{\numberline {7.2}Punto de Vista de Infraestructura}{86}}
\@writefile{toc}{\contentsline {subsection}{\numberline {7.2.1}Modelo}{86}}
\@writefile{lof}{\contentsline {figure}{\numberline {7.1}{\ignorespaces Organizaci\IeC {\'o}n}}{86}}
\@writefile{toc}{\contentsline {subsection}{\numberline {7.2.2}Caso}{87}}
\@writefile{lof}{\contentsline {figure}{\numberline {7.2}{\ignorespaces Organizaci\IeC {\'o}n}}{87}}
\@writefile{toc}{\contentsline {section}{\numberline {7.3}Punto de Vista de Uso de Infraestructura}{88}}
\@writefile{toc}{\contentsline {subsection}{\numberline {7.3.1}Modelo}{88}}
\@writefile{lof}{\contentsline {figure}{\numberline {7.3}{\ignorespaces Organizaci\IeC {\'o}n}}{88}}
\@writefile{toc}{\contentsline {subsection}{\numberline {7.3.2}Caso}{89}}
\@writefile{lof}{\contentsline {figure}{\numberline {7.4}{\ignorespaces Organizaci\IeC {\'o}n}}{89}}
\@writefile{toc}{\contentsline {section}{\numberline {7.4}Punto de Vista de Implementaci\IeC {\'o}n y Despliegue}{90}}
\@writefile{toc}{\contentsline {subsection}{\numberline {7.4.1}Modelo}{90}}
\@writefile{lof}{\contentsline {figure}{\numberline {7.5}{\ignorespaces Organizaci\IeC {\'o}n}}{90}}
\@writefile{toc}{\contentsline {subsection}{\numberline {7.4.2}Caso}{91}}
\@writefile{lof}{\contentsline {figure}{\numberline {7.6}{\ignorespaces Organizaci\IeC {\'o}n}}{91}}
\@writefile{toc}{\contentsline {section}{\numberline {7.5}Punto de Vista de Estructura de la Informaci\IeC {\'o}n}{92}}
\@writefile{toc}{\contentsline {subsection}{\numberline {7.5.1}Modelo}{92}}
\@writefile{lof}{\contentsline {figure}{\numberline {7.7}{\ignorespaces Organizaci\IeC {\'o}n}}{92}}
\@writefile{toc}{\contentsline {subsection}{\numberline {7.5.2}Caso}{93}}
\@writefile{lof}{\contentsline {figure}{\numberline {7.8}{\ignorespaces Organizaci\IeC {\'o}n}}{93}}
\@writefile{toc}{\contentsline {section}{\numberline {7.6}Punto de Vista de Cooperaci\IeC {\'o}n de Realizaci\IeC {\'o}n del Servicio}{94}}
\@writefile{toc}{\contentsline {subsection}{\numberline {7.6.1}Modelo}{94}}
\@writefile{lof}{\contentsline {figure}{\numberline {7.9}{\ignorespaces Organizaci\IeC {\'o}n}}{94}}
\@writefile{toc}{\contentsline {subsection}{\numberline {7.6.2}Caso}{95}}
\@writefile{lof}{\contentsline {figure}{\numberline {7.10}{\ignorespaces Organizaci\IeC {\'o}n}}{95}}
\@writefile{toc}{\contentsline {section}{\numberline {7.7}Punto de Vista de Capas}{96}}
\@writefile{toc}{\contentsline {subsection}{\numberline {7.7.1}Modelo}{96}}
\@writefile{lof}{\contentsline {figure}{\numberline {7.11}{\ignorespaces Organizaci\IeC {\'o}n}}{96}}
\@writefile{toc}{\contentsline {subsection}{\numberline {7.7.2}Caso}{97}}
\@writefile{lof}{\contentsline {figure}{\numberline {7.12}{\ignorespaces Organizaci\IeC {\'o}n}}{97}}
\@setckpt{arquitectura_diseno/tecnologia}{
\setcounter{page}{98}
\setcounter{equation}{0}
\setcounter{enumi}{0}
\setcounter{enumii}{0}
\setcounter{enumiii}{0}
\setcounter{enumiv}{10}
\setcounter{footnote}{0}
\setcounter{mpfootnote}{0}
\setcounter{part}{2}
\setcounter{chapter}{7}
\setcounter{section}{7}
\setcounter{subsection}{2}
\setcounter{subsubsection}{0}
\setcounter{paragraph}{0}
\setcounter{subparagraph}{0}
\setcounter{figure}{12}
\setcounter{table}{0}
\setcounter{lstnumber}{44}
\setcounter{lstlisting}{0}
}
